dataset,populationSize,numGenerations,numFeatures,avgNumSize2ShapeletsInEvolved,tournamentSize,tournamentP,epsilon,evolvedRFAccuracy,exhaustiveRFAccuracy,avgEvolvedTime,avgExhaustiveTime
HEPATITIS,100,100,75,74.1,2,0.6,5,0.7692244897959184,0.0
HEPATITIS,100,100,75,74.1,2,0.7,5,0.7892653061224489,0.0
HEPATITIS,100,100,75,73.5,2,0.8,5,0.7830612244897959,0.0
HEPATITIS,100,100,75,74.3,2,0.9,5,0.7571836734693878,0.0
HEPATITIS,100,100,75,74.6,2,1.0,5,0.7489795918367348,0.0
//now new configuration!:
HEPATITIS,100,100,75,67.1,2,0.7,5,0.7448979591836735,0.0
HEPATITIS,100,1000,75,57.2,2,0.7,5,0.7488979591836735,0.0
HEPATITIS,500,200,75,71.9,2,0.7,5,0.8092653061224488,0.0
HEPATITIS,500,200,75,73.6,2,1.0,5,0.8051020408163264,0.0
HEPATITIS,100,100,75,73.0,2,1.0,5,0.7431020408163265,0.8271428571428572


AUSLAN2,500,200,75,68.2,2,1.0,5,0.45499999999999996,0.385
BLOCKS,500,200,75,69.4,2,1.0,5,1.0,1.0
CONTEXT,500,200,75,70.7,2,1.0,5,0.8291666666666666,0.6333333333333333
HEPATITIS,500,200,75,73.6,2,1.0,5,0.8051020408163264,0.8271428571428572
PIONEER,500,200,75,73.3,2,1.0,5,1.0,0.9375
SKATING,500,200,75,73.8,2,1.0,5,0.9471698113207548,0.9509433962264151
//with counting isntead of boolean features:
AUSLAN2,500,200,75,69.6,2,1.0,5,0.42000000000000004,0.385
BLOCKS,500,200,75,70.4,2,1.0,5,1.0,1.0
CONTEXT,500,200,75,71.1,2,1.0,5,0.8708333333333333,0.6333333333333333
HEPATITIS,500,200,75,74.5,2,1.0,5,0.8155510204081633,0.8271428571428572
PIONEER,500,200,75,73.2,2,1.0,5,1.0,0.9375
SKATING,500,200,75,74.1,2,1.0,5,0.9547169811320755,0.9509433962264151
//with smart shapelet appender
AUSLAN2,500,200,75,61.1,2,1.0,5,0.425,0.385
BLOCKS,500,200,75,60.4,2,1.0,5,1.0,1.0
CONTEXT,500,200,75,60.0,2,1.0,5,0.8833333333333334,0.6333333333333333
HEPATITIS,500,200,75,73.2,2,1.0,5,0.7893877551020408,0.8271428571428572
PIONEER,500,200,75,70.1,2,1.0,5,1.0,0.9375
SKATING,500,200,75,68.3,2,1.0,5,0.9528301886792454,0.9509433962264151

AUSLAN2,500,200,75,58.1,2,1.0,5,0.425,0.385,1.2246875E10,7.09375E8
BLOCKS,500,200,75,55.9,2,1.0,5,0.9952380952380953,1.0,9.1421875E9,2.5E8
CONTEXT,500,200,75,65.8,2,1.0,5,0.8666666666666666,0.6333333333333333,3.4525E10,1.2E9
HEPATITIS,500,200,75,70.2,2,1.0,5,0.7893061224489796,0.8271428571428572,1.336796875E11,7.4109375E9
PIONEER,500,200,75,69.4,2,1.0,5,1.0,0.9375,1.366875E10,1.26875E9
SKATING,500,200,75,67.4,2,1.0,5,0.9452830188679245,0.9509433962264151,4.3346875E10,2.4203125E9
ASL-BU,500,200,75,73.0,2,1.0,5,0.511963963963964,0.7801981981981982,2.84328125E10,1.208125E10
ASL-BU-2,500,200,75,74.7,2,1.0,5,0.4069641367806506,0.6728106755629691,4.49984375E10,4.68234375E10
//with multiclasslabel fixed and additional operators:
ASL-BU,500,1000,75,75.0,2,1.0,5,0.9134353741496598,0.0,1.01296875E11,1.01296875E11
ASL-BU-2,500,1000,75,75.0,2,1.0,5,0.854075235109718,0.0,1.60071875E11,1.60071875E11
AUSLAN2,500,1000,75,33.2,2,1.0,5,0.37,0.0,4.29015625E10,4.29015625E10
BLOCKS,500,1000,75,41.8,2,1.0,5,0.9952380952380953,0.0,3.143125E10,3.143125E10
CONTEXT,500,1000,75,68.8,2,1.0,5,0.6375,0.0,1.556140625E11,1.556140625E11
//total STIFE framework starts here:
//REDO, switched parameters lol
AUSLAN2,200,500,75,55.6,2,1.0,5,0.465,0.0,1.38453125E10,1.38453125E10
BLOCKS,200,500,75,53.6,2,1.0,5,1.0,0.0,1.115E10,1.115E10
CONTEXT,200,500,75,54.6,2,1.0,5,0.9958333333333333,0.0,2.8578125E10,2.8578125E10
HEPATITIS,200,500,75,65.9,2,1.0,5,0.8094285714285714,0.0,6.900625E10,6.900625E10
PIONEER,200,500,75,70.4,2,1.0,5,0.9625,0.0,9.409375E9,9.409375E9
SKATING,200,500,75,66.0,2,1.0,5,0.960377358490566,0.0,4.01234375E10,4.01234375E10

ASL-BU,500,1000,75,75.0,2,1.0,5,0.8886479591836736,0.0,1.011875E11,1.011875E11
ASL-BU-2,500,1000,75,75.0,2,1.0,5,0.8391457680250782,0.0,1.6029375E11,1.6029375E11
AUSLAN2,500,200,75,58.1,2,1.0,5,0.485,0.0,1.4034375E10,1.4034375E10
BLOCKS,500,200,75,55.9,2,1.0,5,1.0,0.0,1.06984375E10,1.06984375E10
CONTEXT,500,200,75,65.8,2,1.0,5,0.9916666666666668,0.0,3.88265625E10,3.88265625E10
HEPATITIS,500,200,75,70.2,2,1.0,5,0.8113469387755103,0.0,1.518765625E11,1.518765625E11
PIONEER,500,200,75,69.4,2,1.0,5,1.0,0.0,1.57546875E10,1.57546875E10
SKATING,500,200,75,67.4,2,1.0,5,0.969811320754717,0.0,5.13859375E10,5.13859375E10
BLOCKS,500,200,75,0.0,2,1.0,5,1.0,0.0,4.036803876E8,4.036803876E8
BLOCKS,500,200,75,0.0,2,1.0,5,1.0,0.0,4.141583733E8,4.141583733E8
BLOCKS,500,200,75,0.0,2,1.0,5,1.0,0.0,4.059524922E8,4.059524922E8
AUSLAN2,500,200,75,0.0,2,1.0,5,0.445,0.0,6.45902991E8,6.45902991E8
AUSLAN2,500,200,75,0.0,2,1.0,5,0.465,0.0,6.027274067E8,6.027274067E8
AUSLAN2,500,200,75,0.0,2,1.0,5,0.445,0.0,6.451459683E8,6.451459683E8
AUSLAN2,500,200,75,6.9,2,1.0,5,0.445,0.0,6.453595091E8,6.453595091E8
AUSLAN2,500,200,75,7.1,2,1.0,5,0.465,0.0,1.0756575309E9,1.0756575309E9
AUSLAN2,500,200,75,7.2,2,1.0,5,0.45999999999999996,0.0,3.1190697294E9,3.1190697294E9
AUSLAN2,500,200,75,7.2,2,1.0,5,0.45999999999999996,0.0,3.0878957563E9,3.0878957563E9
AUSLAN2,500,200,75,75.0,2,1.0,5,0.475,0.0,1.12456843183E10,1.12456843183E10
AUSLAN2,500,200,75,75.0,2,1.0,5,0.45499999999999996,0.0,1.08100057722E10,1.08100057722E10
PIONEER,500,200,75,75.0,2,1.0,5,0.9875,0.0,1.17222256198E10,1.17222256198E10
HEPATITIS,500,200,75,75.0,2,1.0,5,0.8093877551020409,0.0,2.042997106946E11,2.042997106946E11
CONTEXT,500,200,75,75.0,2,1.0,5,0.9958333333333333,0.0,6.43541600224E10,6.43541600224E10
BLOCKS,500,200,75,75.0,2,1.0,5,1.0,0.0,1.40668664418E10,1.40668664418E10
SKATING,500,200,75,75.0,2,1.0,5,0.9735849056603774,0.0,2.560577459735E11,2.560577459735E11
AUSLAN2,500,200,75,75.0,2,1.0,5,0.475,0.0,2.48808291124E10,2.48808291124E10
PIONEER,500,200,75,75.0,2,1.0,5,0.96875,0.0,4.666361336597E11,4.666361336597E11
AUSLAN2,500,200,75,8.4,2,1.0,5,0.475,0.0,8.459934089E8,8.459934089E8
PIONEER,500,200,75,10.0,2,1.0,5,0.93125,0.0,5.12077872E8,5.12077872E8
HEPATITIS,500,200,75,9.8,2,1.0,5,0.7813061224489796,0.0,7.0232513356E9,7.0232513356E9
CONTEXT,500,200,75,9.8,2,1.0,5,1.0,0.0,1.9859524759E9,1.9859524759E9
BLOCKS,500,200,75,8.7,2,1.0,5,1.0,0.0,5.953045754E8,5.953045754E8
SKATING,500,200,75,10.0,2,1.0,5,0.9188679245283019,0.0,7.0748335786E9,7.0748335786E9
AUSLAN2,500,200,75,8.6,2,1.0,5,0.47000000000000003,0.0,8.069377608E8,8.069377608E8
PIONEER,500,200,75,9.9,2,1.0,5,0.94375,0.0,4.830736966E8,4.830736966E8
AUSLAN2,500,200,75,75.0,2,1.0,5,0.505,0.0,1.15488305947E10,1.15488305947E10
PIONEER,500,200,75,75.0,2,1.0,5,1.0,0.0,1.20701826325E10,1.20701826325E10
HEPATITIS,500,200,75,75.0,2,1.0,5,0.8014285714285714,0.0,1.738629670783E11,1.738629670783E11
CONTEXT,500,200,75,75.0,2,1.0,5,0.9958333333333333,0.0,5.12509659983E10,5.12509659983E10
BLOCKS,500,200,75,75.0,2,1.0,5,1.0,0.0,1.82384352882E10,1.82384352882E10
SKATING,500,200,75,75.0,2,1.0,5,0.960377358490566,0.0,1.897190316621E11,1.897190316621E11
AUSLAN2,500,200,75,75.0,2,1.0,5,0.475,0.0,2.2244246885E10,2.2244246885E10
PIONEER,500,200,75,75.0,2,1.0,5,0.99375,0.0,2.35913594555E10,2.35913594555E10
HEPATITIS,500,200,75,75.0,2,1.0,5,0.8115102040816327,0.0,3.567952965189E11,3.567952965189E11
CONTEXT,500,200,75,75.0,2,1.0,5,0.9958333333333333,0.0,1.011669343059E11,1.011669343059E11
BLOCKS,500,200,75,75.0,2,1.0,5,1.0,0.0,3.5836491342E10,3.5836491342E10
SKATING,500,200,75,75.0,2,1.0,5,0.9622641509433961,0.0,3.823510214419E11,3.823510214419E11
AUSLAN2,500,200,75,75.0,2,1.0,5,0.49000000000000005,0.0,1.0691715829E9,1.0691715829E9
PIONEER,500,200,75,75.0,2,1.0,5,1.0,0.0,3.794201415E8,3.794201415E8
HEPATITIS,500,200,75,75.0,2,1.0,5,0.8133877551020408,0.0,5.3513319009E9,5.3513319009E9
CONTEXT,500,200,75,75.0,2,1.0,5,0.9958333333333333,0.0,1.0432696517E9,1.0432696517E9
BLOCKS,500,200,75,75.0,2,1.0,5,1.0,0.0,4.994555841E8,4.994555841E8
SKATING,500,200,75,75.0,2,1.0,5,0.9735849056603774,0.0,3.9659062809E9,3.9659062809E9
AUSLAN2,500,200,75,75.0,2,1.0,5,0.43,0.0,1.109815855E9,1.109815855E9
PIONEER,500,200,75,75.0,2,1.0,5,0.9875,0.0,3.593634554E8,3.593634554E8
AUSLAN2,500,200,75,75.0,2,1.0,5,0.45999999999999996,0.0,1.1137051539E9,1.1137051539E9
PIONEER,500,200,75,75.0,2,1.0,5,0.98125,0.0,3.679802269E8,3.679802269E8
HEPATITIS,500,200,75,75.0,2,1.0,5,0.8133877551020408,0.0,5.4316485802E9,5.4316485802E9
CONTEXT,500,200,75,75.0,2,1.0,5,0.9958333333333333,0.0,1.0358606578E9,1.0358606578E9
BLOCKS,500,200,75,75.0,2,1.0,5,1.0,0.0,5.580758535E8,5.580758535E8
SKATING,500,200,75,75.0,2,1.0,5,0.9660377358490566,0.0,3.8869384718E9,3.8869384718E9
AUSLAN2,500,200,75,1000.0,2,1.0,5,0.475,0.0,4.0919571038E9,4.0919571038E9
PIONEER,500,200,75,1000.0,2,1.0,5,0.9875,0.0,1.0273833486E9,1.0273833486E9
HEPATITIS,500,200,75,1000.0,2,1.0,5,0.8053877551020407,0.0,9.5059331848E9,9.5059331848E9
CONTEXT,500,200,75,1000.0,2,1.0,5,0.9916666666666668,0.0,2.2877278334E9,2.2877278334E9
BLOCKS,500,200,75,1000.0,2,1.0,5,1.0,0.0,1.4277970785E9,1.4277970785E9
SKATING,500,200,75,1000.0,2,1.0,5,0.9641509433962264,0.0,7.8269711656E9,7.8269711656E9
AUSLAN2,500,200,75,75.0,2,1.0,5,0.41500000000000004,0.0,2.0016285922E9,2.0016285922E9
AUSLAN2,500,200,75,75.0,2,1.0,5,0.40499999999999997,0.0,3.0368849046E9,3.0368849046E9
AUSLAN2,500,200,75,75.0,2,1.0,5,0.45499999999999996,0.0,2.9875059676E9,2.9875059676E9
AUSLAN2,500,200,75,75.0,2,1.0,5,0.45,0.0,1.0957788464E9,1.0957788464E9
PIONEER,500,200,75,75.0,2,1.0,5,0.95625,0.0,2.1398942094E9,2.1398942094E9
HEPATITIS,500,200,75,75.0,2,1.0,5,0.7711836734693878,0.0,3.38104595467E11,3.38104595467E11
CONTEXT,500,200,75,75.0,2,1.0,5,0.975,0.0,2.2302790944E10,2.2302790944E10
BLOCKS,500,200,75,75.0,2,1.0,5,1.0,0.0,3.664676017E8,3.664676017E8
SKATING,500,200,75,75.0,2,1.0,5,0.879245283018868,0.0,5.53312033207E10,5.53312033207E10
AUSLAN2,500,200,75,75.0,2,1.0,5,0.395,0.0,3.0570044409E9,3.0570044409E9
AUSLAN2,500,200,75,400.0,2,1.0,5,0.41,0.0,4.6706517949E9,4.6706517949E9
AUSLAN2,500,200,75,75.0,2,1.0,5,0.475,0.0,2.0985159472E9,2.0985159472E9
PIONEER,500,200,75,75.0,2,1.0,5,0.96875,0.0,2.18507179067E10,2.18507179067E10
AUSLAN2,500,200,75,75.0,2,1.0,5,0.45999999999999996,0.0,1.7419943364E9,1.7419943364E9
PIONEER,500,200,75,75.0,2,1.0,5,0.96875,0.0,1.2242711246E9,1.2242711246E9
AUSLAN2,500,200,75,75.0,2,1.0,5,0.47000000000000003,0.0,1.9624372157E9,1.9624372157E9
PIONEER,500,200,75,75.0,2,1.0,5,0.98125,0.0,1.8892706961E9,1.8892706961E9
HEPATITIS,500,200,75,75.0,2,1.0,5,0.7932653061224489,0.0,1.93305047787E10,1.93305047787E10
AUSLAN2,500,200,75,75.0,2,1.0,5,0.485,0.0,1.8103264587E9,1.8103264587E9
PIONEER,500,200,75,75.0,2,1.0,5,1.0,0.0,1.6658930454E9,1.6658930454E9
HEPATITIS,500,200,75,75.0,2,1.0,5,0.8034285714285714,0.0,1.57650941865E10,1.57650941865E10
CONTEXT,500,200,75,75.0,2,1.0,5,0.9958333333333333,0.0,4.769729261E9,4.769729261E9
BLOCKS,500,200,75,75.0,2,1.0,5,1.0,0.0,3.0831105872E9,3.0831105872E9
SKATING,500,200,75,75.0,2,1.0,5,0.960377358490566,0.0,2.39876048761E10,2.39876048761E10
AUSLAN2,500,200,75,75.0,2,1.0,5,0.49000000000000005,0.0,1.8876067747E9,1.8876067747E9
PIONEER,500,200,75,75.0,2,1.0,5,0.9875,0.0,1.6712675309E9,1.6712675309E9
HEPATITIS,500,200,75,75.0,2,1.0,5,0.8093061224489796,0.0,1.91943746344E10,1.91943746344E10
CONTEXT,500,200,75,75.0,2,1.0,5,0.9958333333333333,0.0,6.016114034E9,6.016114034E9
BLOCKS,500,200,75,75.0,2,1.0,5,1.0,0.0,1.9571965243E9,1.9571965243E9
SKATING,500,200,75,75.0,2,1.0,5,0.9754716981132076,0.0,2.90626423479E10,2.90626423479E10
AUSLAN2,500,200,75,75.0,2,1.0,5,0.485,0.0,2.4955516991E9,2.4955516991E9
PIONEER,500,200,75,75.0,2,1.0,5,0.99375,0.0,2.9754356859E9,2.9754356859E9
HEPATITIS,500,200,75,75.0,2,1.0,5,0.8053877551020407,0.0,2.7407482167E10,2.7407482167E10
CONTEXT,500,200,75,75.0,2,1.0,5,0.9958333333333333,0.0,9.125474731E9,9.125474731E9
BLOCKS,500,200,75,75.0,2,1.0,5,1.0,0.0,5.8912432094E9,5.8912432094E9
SKATING,500,200,75,75.0,2,1.0,5,0.9622641509433961,0.0,4.37101840952E10,4.37101840952E10
AUSLAN2,500,200,75,75.0,2,1.0,5,0.465,0.0,1.7130540411E9,1.7130540411E9
PIONEER,500,200,75,75.0,2,1.0,5,0.9875,0.0,9.394354962E8,9.394354962E8
HEPATITIS,500,200,75,75.0,2,1.0,5,0.8194285714285714,0.0,1.10488520933E10,1.10488520933E10
CONTEXT,500,200,75,75.0,2,1.0,5,0.9916666666666668,0.0,4.1008045911E9,4.1008045911E9
BLOCKS,500,200,75,75.0,2,1.0,5,1.0,0.0,1.0823754934E9,1.0823754934E9
SKATING,500,200,75,75.0,2,1.0,5,0.9622641509433961,0.0,6.0889193704E9,6.0889193704E9
ASL-BU,500,200,75,75.0,2,1.0,5,0.869982993197279,0.0,7.0795084149E9,7.0795084149E9
ASL-BU-2,500,200,75,75.0,2,1.0,5,0.7898380355276907,0.0,1.3581991893E10,1.3581991893E10
ASL-BU,500,200,75,75.0,2,1.0,5,0.8679846938775511,0.0,1.79897777448E10,1.79897777448E10
ASL-BU,500,200,75,75.0,2,1.0,5,0.8803146258503401,0.0,6.89160762542E10,6.89160762542E10
ASL-BU-2,500,200,75,75.0,2,1.0,5,0.8082419017763846,0.0,1.425819090287E11,1.425819090287E11
AUSLAN2,500,200,75,75.0,2,1.0,5,0.495,0.0,2.30517470328E10,2.30517470328E10
PIONEER,500,200,75,75.0,2,1.0,5,0.99375,0.0,2.29888645852E10,2.29888645852E10
